%!PS-Adobe-3.0 EPSF-3.0
%%Creator: cairo 1.14.6 (http://cairographics.org)
%%CreationDate: Wed Aug 29 10:42:29 2018
%%Pages: 1
%%DocumentData: Clean7Bit
%%LanguageLevel: 2
%%BoundingBox: 0 0 512 512
%%EndComments
%%BeginProlog
save
50 dict begin
/q { gsave } bind def
/Q { grestore } bind def
/cm { 6 array astore concat } bind def
/w { setlinewidth } bind def
/J { setlinecap } bind def
/j { setlinejoin } bind def
/M { setmiterlimit } bind def
/d { setdash } bind def
/m { moveto } bind def
/l { lineto } bind def
/c { curveto } bind def
/h { closepath } bind def
/re { exch dup neg 3 1 roll 5 3 roll moveto 0 rlineto
      0 exch rlineto 0 rlineto closepath } bind def
/S { stroke } bind def
/f { fill } bind def
/f* { eofill } bind def
/n { newpath } bind def
/W { clip } bind def
/W* { eoclip } bind def
/BT { } bind def
/ET { } bind def
/pdfmark where { pop globaldict /?pdfmark /exec load put }
    { globaldict begin /?pdfmark /pop load def /pdfmark
    /cleartomark load def end } ifelse
/BDC { mark 3 1 roll /BDC pdfmark } bind def
/EMC { mark /EMC pdfmark } bind def
/cairo_store_point { /cairo_point_y exch def /cairo_point_x exch def } def
/Tj { show currentpoint cairo_store_point } bind def
/TJ {
  {
    dup
    type /stringtype eq
    { show } { -0.001 mul 0 cairo_font_matrix dtransform rmoveto } ifelse
  } forall
  currentpoint cairo_store_point
} bind def
/cairo_selectfont { cairo_font_matrix aload pop pop pop 0 0 6 array astore
    cairo_font exch selectfont cairo_point_x cairo_point_y moveto } bind def
/Tf { pop /cairo_font exch def /cairo_font_matrix where
      { pop cairo_selectfont } if } bind def
/Td { matrix translate cairo_font_matrix matrix concatmatrix dup
      /cairo_font_matrix exch def dup 4 get exch 5 get cairo_store_point
      /cairo_font where { pop cairo_selectfont } if } bind def
/Tm { 2 copy 8 2 roll 6 array astore /cairo_font_matrix exch def
      cairo_store_point /cairo_font where { pop cairo_selectfont } if } bind def
/g { setgray } bind def
/rg { setrgbcolor } bind def
/d1 { setcachedevice } bind def
%%EndProlog
%%BeginSetup
%%EndSetup
%%Page: 1 1
%%BeginPageSetup
%%PageBoundingBox: 0 0 512 512
%%EndPageSetup
q 0 0 512 512 rectclip q
0 g
256 512 m 148.059 512 60.234 424.176 60.234 316.234 c 60.234 135.531 l 
60.234 110.617 80.5 90.352 105.41 90.352 c 130.324 90.352 150.59 110.617
 150.59 135.531 c 150.59 286.117 l 150.59 311.027 130.324 331.293 105.41
 331.293 c 100.34 331.293 95.543 330.266 90.984 328.719 c 97.41 414.23 168.887
 481.883 256 481.883 c 343.066 481.883 414.523 414.293 421.008 328.84 c 
416.477 330.391 411.652 331.293 406.59 331.293 c 381.676 331.293 361.41 
311.027 361.41 286.117 c 361.41 135.531 l 361.41 110.617 381.676 90.352 
406.59 90.352 c 411.895 90.352 416.914 91.438 421.648 93.125 c 421.648 75.293
 l 421.648 66.984 414.883 60.234 406.59 60.234 c 298.402 60.234 l 292.164
 77.727 275.605 90.352 256 90.352 c 231.09 90.352 210.824 70.086 210.824
 45.176 c 210.824 20.266 231.09 0 256 0 c 275.605 0 292.164 12.629 298.402
 30.117 c 406.59 30.117 l 431.5 30.117 451.766 50.383 451.766 75.293 c 451.766
 316.234 l 451.766 424.176 363.941 512 256 512 c h
256 512 m f
481.883 298.402 m 481.883 123.246 l 499.371 129.48 512 146.039 512 165.648
 c 512 256 l 512 275.605 499.371 292.164 481.883 298.402 c h
481.883 298.402 m f
0 256 m 0 165.648 l 0 146.039 12.629 129.48 30.117 123.246 c 30.117 298.402
 l 12.629 292.164 0 275.605 0 256 c h
0 256 m f
Q Q
showpage
%%Trailer
end restore
%%EOF
