<?xml version="1.0" encoding="utf-8"?>
<!-- Generator: Adobe Illustrator 21.0.2, SVG Export Plug-In . SVG Version: 6.00 Build 0)  -->
<svg version="1.1" id="Capa_1" xmlns="http://www.w3.org/2000/svg" xmlns:xlink="http://www.w3.org/1999/xlink" x="0px" y="0px"
	 viewBox="0 0 409.5 192.5" style="enable-background:new 0 0 409.5 192.5;" xml:space="preserve">
<style type="text/css">
	.st0{fill-rule:evenodd;clip-rule:evenodd;fill:#C91A15;}
	.st1{fill-rule:evenodd;clip-rule:evenodd;fill:#060504;}
	.st2{fill-rule:evenodd;clip-rule:evenodd;fill:#fff;}
</style>
<g>
	<path class="st0" d="M92.7,44.4C49.8,54.2,24.4,78.1,24.4,102c0,53,108.8,62.2,150.1,62.1c52.2-0.1,203.2-10.8,203.2-78.8
		c0-41.4-80-75.5-178.6-75.5c0.2,0,0.1,0,0.1,0c113,0,204.5,38.4,204.5,85.9c0,75.3-173.8,87-228.4,87
		c-45.2,0-169.3-10.8-169.3-72.4C5.9,81.5,39.3,54.6,92.7,44.4z"/>
	<path class="st1" d="M284.4,137.1c-3.7,0-6.8-3.1-6.8-6.9c0-3.7,3.1-6.8,6.8-6.8c3.8,0,6.9,3.1,6.9,6.8
		C291.2,134,288.2,137.1,284.4,137.1z M284.4,137.1L284.4,137.1L284.4,137.1z M284.4,124.1L284.4,124.1c-3.4,0-6.2,2.8-6.2,6.1
		c0,3.5,2.8,6.2,6.2,6.2c3.4,0,6.2-2.8,6.2-6.2C290.5,126.9,287.8,124.1,284.4,124.1z"/>
	<polygon class="st1" points="284.6,132.8 283.7,132.8 283.7,128.4 282.3,132.8 281.8,132.8 280.4,128.4 280.4,132.8 279.6,132.8 
		279.6,127.7 281.1,127.7 282.1,131 283.2,127.7 284.6,127.7 	"/>
	<path class="st1" d="M289.1,132.8h-1l-0.8-2.1H286v2.1h-0.9v-5.1h2.2c0.6,0,1.1,0.1,1.4,0.4c0.3,0.3,0.4,0.6,0.4,1.1
		c0,0.6-0.3,1.1-0.9,1.3L289.1,132.8z M289.1,132.8L289.1,132.8L289.1,132.8z M286,130L286,130h1.2c0.3,0,0.6-0.1,0.7-0.2
		c0.2-0.1,0.3-0.3,0.3-0.6c0-0.2-0.1-0.4-0.3-0.5c-0.1-0.2-0.3-0.3-0.6-0.3H286V130z"/>
	<polygon class="st1" points="92.3,44.4 119.8,44.4 130.1,68.5 140.1,44.4 167.9,44.4 167.7,137.1 140.1,137.1 140.1,92.1 
		130.1,113.1 119.8,92.1 119.8,137.1 92.3,137.1 	"/>
	<polygon class="st2" points="93.9,46 93.9,135.5 118.2,135.5 118.2,85.4 130.1,109.5 141.7,85.3 141.7,135.5 166.2,135.5 166.3,46 
		141.2,46 130.1,72.5 118.7,46 	"/>
	<path class="st1" d="M281.6,44.5c13.5,0.3,30.7,4,30.2,29.3c-0.5,32-34.3,29-41.1,29v34.3h-24V44.4h27.4
		C276.4,44.4,278.7,44.4,281.6,44.5z M281.6,44.5L281.6,44.5L281.6,44.5z M270.7,82.2h6.9c3.5,0,10.3,0,10.3-6.9
		c0-6.9-4.5-7-10.3-6.9h-6.9V82.2z"/>
	<path class="st2" d="M248.3,46v89.5h20.9v-34.3h1.5c1.3,0,2.5,0.1,3.7,0.1c1.9,0.1,3.7,0,5.4-0.1c4.5-0.3,9-0.9,13.3-2.4
		c11.7-4.1,17-12.9,17.2-25.1c0.2-10.7-2.8-20.4-13.3-25c-4.8-2.1-10.3-2.6-15.4-2.8c-2.5,0-5,0-7.4,0H248.3z M248.3,46L248.3,46
		L248.3,46z M269.2,83.8V66.9h8.4c2.9,0,6.9-0.1,9.3,1.8c2.1,1.7,2.6,4.2,2.6,6.7c0,2.7-1,5.1-3.2,6.6c-2.5,1.7-5.8,1.9-8.7,1.9
		H269.2z"/>
	<path class="st1" d="M243.3,82.2c0-20.6-10.3-37.7-36-37.7c-25.8,0-36.1,20.6-36.1,46.3c0,25.8,10.3,46.3,36.1,46.3
		c25.7,0,36-17.2,36-37.7h-24c-1.7,6.9-3.4,13.7-12,13.7c-8.6,0-12-12-12-22.3c0-10.3,3.5-22.3,12-22.3c8.6,0,10.3,6.9,12,13.7
		H243.3z"/>
	<path class="st2" d="M241.7,80.6c-0.3-8.2-2.2-16.7-7.4-23.3c-6.7-8.5-16.7-11.3-27-11.3c-26.2,0-34.5,21.9-34.5,44.7
		s8.3,44.8,34.5,44.8c10.4,0,20.4-2.9,27-11.4c5.1-6.5,7.1-15,7.4-23.2h-21.2c-0.9,3.7-2.1,7.8-4.8,10.6c-2.3,2.3-5.3,3.1-8.4,3.1
		c-1.6,0-3.1-0.3-4.5-1c-7.2-3.6-9.2-15.5-9.2-22.9c0-1.7,0.1-3.3,0.3-4.9c0.6-6.2,2.9-14.9,8.9-17.9c1.4-0.7,2.9-1,4.5-1
		c3.1,0,6.1,0.9,8.4,3.2c2.7,2.7,3.9,6.9,4.8,10.6H241.7z"/>
</g>
</svg>
